Restador/build/restador_tb.vcd
$date
	Fri Sep 13 10:58:33 2024
$end
$version
	Icarus Verilog
$end
$timescale
	1ps
$end
$scope module Restador_tb $end
$scope module uut $end
$var wire 4 ! A [3:0] $end
$var wire 4 " B [3:0] $end
$var wire 1 # Signo $end
$var wire 1 $ sel $end
$var wire 4 % Suma [3:0] $end
$var wire 4 & Resultado [3:0] $end
$var wire 1 ' C_out $end
$var reg 4 ( resul [3:0] $end
$var integer 32 ) i [31:0] $end
$scope module S $end
$var wire 4 * A [3:0] $end
$var wire 4 + B [3:0] $end
$var wire 1 $ Ci $end
$var wire 1 , c3 $end
$var wire 1 - c2 $end
$var wire 1 . c1 $end
$var wire 4 / Sum [3:0] $end
$var wire 1 ' Cout $end
$scope module s0 $end
$var wire 1 0 A $end
$var wire 1 1 B $end
$var wire 1 $ Ci $end
$var wire 1 2 Sum $end
$var wire 1 . Cout $end
$var reg 2 3 result [1:0] $end
$upscope $end
$scope module s1 $end
$var wire 1 4 A $end
$var wire 1 5 B $end
$var wire 1 . Ci $end
$var wire 1 6 Sum $end
$var wire 1 - Cout $end
$var reg 2 7 result [1:0] $end
$upscope $end
$scope module s2 $end
$var wire 1 8 A $end
$var wire 1 9 B $end
$var wire 1 - Ci $end
$var wire 1 : Sum $end
$var wire 1 , Cout $end
$var reg 2 ; result [1:0] $end
$upscope $end
$scope module s3 $end
$var wire 1 < A $end
$var wire 1 = B $end
$var wire 1 , Ci $end
$var wire 1 > Sum $end
$var wire 1 ' Cout $end
$var reg 2 ? result [1:0] $end
$upscope $end
$upscope $end
$upscope $end
$upscope $end
$enddefinitions $end
$comment Show the parameter values. $end
$dumpall
$end
#0
$dumpvars
b10 ?
0>
1=
0<
b10 ;
0:
19
08
b10 7
06
15
04
b11 3
12
11
10
b1 /
1.
1-
1,
b1111 +
b1 *
b100 )
b1111 (
1'
b1 &
b1 %
1$
0#
b0 "
b1 !
$end
#5000
b0 &
b0 %
b0 /
02
b10 3
01
b1110 (
b1110 +
b100 )
b1 "
#10000
1#
1>
0'
b1 ?
1:
0,
b1 ;
b1 &
16
0-
b1111 %
b1111 /
12
b1 7
b11 3
05
11
b1101 (
b1101 +
b100 )
b10 "
#15000
b10 &
b1110 %
b1110 /
02
b10 3
01
b1100 (
b1100 +
b100 )
b11 "
#20000
b11 &
1:
06
1-
b1101 %
b1101 /
12
b1 ;
b10 7
b11 3
09
15
11
b1011 (
b1011 +
b100 )
b100 "
#25000
b100 &
b1100 %
b1100 /
02
b10 3
01
b1010 (
b1010 +
b100 )
b101 "
#30000
0:
b101 &
b0 ;
16
0-
b1011 %
b1011 /
12
b1 7
b11 3
05
11
b1001 (
b1001 +
b100 )
b110 "
#35000
b110 &
b1010 %
b1010 /
02
b10 3
01
b1000 (
b1000 +
b100 )
b111 "
#40000
1,
b111 &
1>
0:
06
1-
b1001 %
b1001 /
12
b1 ?
b10 ;
b10 7
b11 3
0=
19
15
11
b111 (
b111 +
b100 )
b1000 "
#45000
b1000 &
b1000 %
b1000 /
02
b10 3
01
b110 (
b110 +
b100 )
b1001 "
#50000
0>
b0 ?
1:
0,
b1001 &
b1 ;
16
0-
b111 %
b111 /
12
b1 7
b11 3
05
11
b101 (
b101 +
b100 )
b1010 "
#55000
b1010 &
b110 %
b110 /
02
b10 3
01
b100 (
b100 +
b100 )
b1011 "
#60000
b1011 &
1:
06
1-
b101 %
b101 /
12
b1 ;
b10 7
b11 3
09
15
11
b11 (
b11 +
b100 )
b1100 "
#65000
b1100 &
b100 %
b100 /
02
b10 3
01
b10 (
b10 +
b100 )
b1101 "
#70000
0:
b1101 &
b0 ;
16
0-
b11 %
b11 /
12
b1 7
b11 3
05
11
b1 (
b1 +
b100 )
b1110 "
#75000
0#
1'
b10 &
1,
0>
0:
b10 %
b10 /
02
1-
b10 ?
b10 ;
b10 3
b11 7
1=
19
15
00
14
b1111 (
b1111 +
b100 )
b10 !
b10 *
b0 "
#80000
06
b1 &
b10 7
b1 %
b1 /
12
0.
b1 3
01
b1110 (
b1110 +
b100 )
b1 "
#85000
0#
0>
1'
b10 ?
0:
1,
b10 ;
b0 &
06
1-
b0 %
b0 /
02
1.
b10 7
b10 3
05
11
b1101 (
b1101 +
b100 )
b10 "
#90000
1#
1>
0'
b1 ?
1:
0,
b1 ;
16
0-
b1 &
b1 7
b1111 %
b1111 /
12
0.
b1 3
01
b1100 (
b1100 +
b100 )
b11 "
#95000
b10 &
1:
16
1-
b1110 %
b1110 /
02
1.
b1 ;
b11 7
b10 3
09
15
11
b1011 (
b1011 +
b100 )
b100 "
#100000
b11 &
06
b10 7
b1101 %
b1101 /
12
0.
b1 3
01
b1010 (
b1010 +
b100 )
b101 "
#105000
1:
b100 &
b1 ;
06
1-
b1100 %
b1100 /
02
1.
b10 7
b10 3
05
11
b1001 (
b1001 +
b100 )
b110 "
#110000
0:
b0 ;
b101 &
16
0-
b1 7
b1011 %
b1011 /
12
0.
b1 3
01
b1000 (
b1000 +
b100 )
b111 "
#115000
1,
b110 &
1>
0:
16
1-
b1010 %
b1010 /
02
1.
b1 ?
b10 ;
b11 7
b10 3
0=
19
15
11
b111 (
b111 +
b100 )
b1000 "
#120000
b111 &
06
b10 7
b1001 %
b1001 /
12
0.
b1 3
01
b110 (
b110 +
b100 )
b1001 "
#125000
1>
b1 ?
0:
1,
b1000 &
b10 ;
06
1-
b1000 %
b1000 /
02
1.
b10 7
b10 3
05
11
b101 (
b101 +
b100 )
b1010 "
#130000
0>
b0 ?
1:
0,
b1 ;
b1001 &
16
0-
b1 7
b111 %
b111 /
12
0.
b1 3
01
b100 (
b100 +
b100 )
b1011 "
#135000
b1010 &
1:
16
1-
b110 %
b110 /
02
1.
b1 ;
b11 7
b10 3
09
15
11
b11 (
b11 +
b100 )
b1100 "
#140000
b1011 &
06
b10 7
b101 %
b101 /
12
0.
b1 3
01
b10 (
b10 +
b100 )
b1101 "
#145000
1:
b1100 &
b1 ;
06
1-
b100 %
b100 /
02
1.
b10 7
b10 3
05
11
b1 (
b1 +
b100 )
b1110 "
#150000
0#
1'
b11 &
0>
0:
1,
16
b11 %
b11 /
12
b10 ?
b10 ;
b11 7
b11 3
1=
19
15
10
b1111 (
b1111 +
b100 )
b11 !
b11 *
b0 "
#155000
b10 &
b10 %
b10 /
02
b10 3
01
b1110 (
b1110 +
b100 )
b1 "
#160000
b1 &
06
b1 %
b1 /
12
b10 7
b11 3
05
11
b1101 (
b1101 +
b100 )
b10 "
#165000
b0 &
b0 %
b0 /
02
b10 3
01
b1100 (
b1100 +
b100 )
b11 "
#170000
1#
1>
0'
b1 ?
b1 &
1:
0,
16
b1111 %
b1111 /
12
b1 ;
b11 7
b11 3
09
15
11
b1011 (
b1011 +
b100 )
b100 "
#175000
b10 &
b1110 %
b1110 /
02
b10 3
01
b1010 (
b1010 +
b100 )
b101 "
#180000
b11 &
06
b1101 %
b1101 /
12
b10 7
b11 3
05
11
b1001 (
b1001 +
b100 )
b110 "
#185000
b100 &
b1100 %
b1100 /
02
b10 3
01
b1000 (
b1000 +
b100 )
b111 "
#190000
b101 &
1>
0:
1,
16
b1011 %
b1011 /
12
b1 ?
b10 ;
b11 7
b11 3
0=
19
15
11
b111 (
b111 +
b100 )
b1000 "
#195000
b110 &
b1010 %
b1010 /
02
b10 3
01
b110 (
b110 +
b100 )
b1001 "
#200000
b111 &
06
b1001 %
b1001 /
12
b10 7
b11 3
05
11
b101 (
b101 +
b100 )
b1010 "
#205000
b1000 &
b1000 %
b1000 /
02
b10 3
01
b100 (
b100 +
b100 )
b1011 "
#210000
0>
b1001 &
b0 ?
1:
0,
16
b111 %
b111 /
12
b1 ;
b11 7
b11 3
09
15
11
b11 (
b11 +
b100 )
b1100 "
#215000
b1010 &
b110 %
b110 /
02
b10 3
01
b10 (
b10 +
b100 )
b1101 "
#220000
b1011 &
06
b101 %
b101 /
12
b10 7
b11 3
05
11
b1 (
b1 +
b100 )
b1110 "
#225000
0#
b100 &
1'
0>
b100 %
b100 /
02
1,
b10 ?
b10 3
b11 ;
1=
19
15
00
04
18
b1111 (
b1111 +
b100 )
b100 !
b100 *
b0 "
#230000
0:
b10 ;
16
0-
b11 &
b1 7
b11 %
b11 /
12
0.
b1 3
01
b1110 (
b1110 +
b100 )
b1 "
#235000
b10 &
16
b10 %
b10 /
02
1.
b1 7
b10 3
05
11
b1101 (
b1101 +
b100 )
b10 "
#240000
06
b1 &
b0 7
b1 %
b1 /
12
0.
b1 3
01
b1100 (
b1100 +
b100 )
b11 "
#245000
0#
0>
1'
1-
b10 ?
b0 &
0:
1,
06
b0 %
b0 /
02
1.
b10 ;
b10 7
b10 3
09
15
11
b1011 (
b1011 +
b100 )
b100 "
#250000
1#
1>
0'
b1 ?
1:
0,
b1 ;
16
0-
b1 &
b1 7
b1111 %
b1111 /
12
0.
b1 3
01
b1010 (
b1010 +
b100 )
b101 "
#255000
b10 &
16
b1110 %
b1110 /
02
1.
b1 7
b10 3
05
11
b1001 (
b1001 +
b100 )
b110 "
#260000
b11 &
06
b0 7
b1101 %
b1101 /
12
0.
b1 3
01
b1000 (
b1000 +
b100 )
b111 "
#265000
b100 &
1-
1>
1:
1,
06
b1100 %
b1100 /
02
1.
b1 ?
b11 ;
b10 7
b10 3
0=
19
15
11
b111 (
b111 +
b100 )
b1000 "
#270000
0:
b10 ;
b101 &
16
0-
b1 7
b1011 %
b1011 /
12
0.
b1 3
01
b110 (
b110 +
b100 )
b1001 "
#275000
b110 &
16
b1010 %
b1010 /
02
1.
b1 7
b10 3
05
11
b101 (
b101 +
b100 )
b1010 "
#280000
b111 &
06
b0 7
b1001 %
b1001 /
12
0.
b1 3
01
b100 (
b100 +
b100 )
b1011 "
#285000
1>
b1000 &
1-
b1 ?
0:
1,
06
b1000 %
b1000 /
02
1.
b10 ;
b10 7
b10 3
09
15
11
b11 (
b11 +
b100 )
b1100 "
#290000
0>
b0 ?
1:
0,
b1 ;
b1001 &
16
0-
b1 7
b111 %
b111 /
12
0.
b1 3
01
b10 (
b10 +
b100 )
b1101 "
#295000
b1010 &
16
b110 %
b110 /
02
1.
b1 7
b10 3
05
11
b1 (
b1 +
b100 )
b1110 "
#300000
0#
1'
b101 &
0>
1:
1,
06
1-
b101 %
b101 /
12
b10 ?
b11 ;
b10 7
b11 3
1=
19
15
10
b1111 (
b1111 +
b100 )
b101 !
b101 *
b0 "
#305000
b100 &
b100 %
b100 /
02
b10 3
01
b1110 (
b1110 +
b100 )
b1 "
#310000
0:
b10 ;
b11 &
16
0-
b11 %
b11 /
12
b1 7
b11 3
05
11
b1101 (
b1101 +
b100 )
b10 "
#315000
b10 &
b10 %
b10 /
02
b10 3
01
b1100 (
b1100 +
b100 )
b11 "
#320000
0#
0>
1'
b10 ?
b1 &
0:
1,
06
1-
b1 %
b1 /
12
b10 ;
b10 7
b11 3
09
15
11
b1011 (
b1011 +
b100 )
b100 "
#325000
b0 &
b0 %
b0 /
02
b10 3
01
b1010 (
b1010 +
b100 )
b101 "
#330000
1#
1>
0'
b1 ?
1:
0,
b1 ;
b1 &
16
0-
b1111 %
b1111 /
12
b1 7
b11 3
05
11
b1001 (
b1001 +
b100 )
b110 "
#335000
b10 &
b1110 %
b1110 /
02
b10 3
01
b1000 (
b1000 +
b100 )
b111 "
#340000
b11 &
1>
1:
1,
06
1-
b1101 %
b1101 /
12
b1 ?
b11 ;
b10 7
b11 3
0=
19
15
11
b111 (
b111 +
b100 )
b1000 "
#345000
b100 &
b1100 %
b1100 /
02
b10 3
01
b110 (
b110 +
b100 )
b1001 "
#350000
0:
b101 &
b10 ;
16
0-
b1011 %
b1011 /
12
b1 7
b11 3
05
11
b101 (
b101 +
b100 )
b1010 "
#355000
b110 &
b1010 %
b1010 /
02
b10 3
01
b100 (
b100 +
b100 )
b1011 "
#360000
1>
b111 &
b1 ?
0:
1,
06
1-
b1001 %
b1001 /
12
b10 ;
b10 7
b11 3
09
15
11
b11 (
b11 +
b100 )
b1100 "
#365000
b1000 &
b1000 %
b1000 /
02
b10 3
01
b10 (
b10 +
b100 )
b1101 "
#370000
0>
b0 ?
1:
0,
b1001 &
b1 ;
16
0-
b111 %
b111 /
12
b1 7
b11 3
05
11
b1 (
b1 +
b100 )
b1110 "
#375000
0#
1'
b110 &
0>
1:
1,
b110 %
b110 /
02
1-
b10 ?
b11 ;
b10 3
b11 7
1=
19
15
00
14
b1111 (
b1111 +
b100 )
b110 !
b110 *
b0 "
#380000
06
b101 &
b10 7
b101 %
b101 /
12
0.
b1 3
01
b1110 (
b1110 +
b100 )
b1 "
#385000
1:
b11 ;
b100 &
06
1-
b100 %
b100 /
02
1.
b10 7
b10 3
05
11
b1101 (
b1101 +
b100 )
b10 "
#390000
0:
b10 ;
16
0-
b11 &
b1 7
b11 %
b11 /
12
0.
b1 3
01
b1100 (
b1100 +
b100 )
b11 "
#395000
0#
0>
1'
b10 ?
b10 &
0:
1,
16
1-
b10 %
b10 /
02
1.
b10 ;
b11 7
b10 3
09
15
11
b1011 (
b1011 +
b100 )
b100 "
#400000
06
b1 &
b10 7
b1 %
b1 /
12
0.
b1 3
01
b1010 (
b1010 +
b100 )
b101 "
#405000
0#
0>
1'
b10 ?
0:
1,
b10 ;
b0 &
06
1-
b0 %
b0 /
02
1.
b10 7
b10 3
05
11
b1001 (
b1001 +
b100 )
b110 "
#410000
1#
1>
0'
b1 ?
1:
0,
b1 ;
16
0-
b1 &
b1 7
b1111 %
b1111 /
12
0.
b1 3
01
b1000 (
b1000 +
b100 )
b111 "
#415000
b10 &
1>
1:
1,
16
1-
b1110 %
b1110 /
02
1.
b1 ?
b11 ;
b11 7
b10 3
0=
19
15
11
b111 (
b111 +
b100 )
b1000 "
#420000
b11 &
06
b10 7
b1101 %
b1101 /
12
0.
b1 3
01
b110 (
b110 +
b100 )
b1001 "
#425000
1:
b100 &
b11 ;
06
1-
b1100 %
b1100 /
02
1.
b10 7
b10 3
05
11
b101 (
b101 +
b100 )
b1010 "
#430000
0:
b10 ;
b101 &
16
0-
b1 7
b1011 %
b1011 /
12
0.
b1 3
01
b100 (
b100 +
b100 )
b1011 "
#435000
1>
b110 &
b1 ?
0:
1,
16
1-
b1010 %
b1010 /
02
1.
b10 ;
b11 7
b10 3
09
15
11
b11 (
b11 +
b100 )
b1100 "
#440000
b111 &
06
b10 7
b1001 %
b1001 /
12
0.
b1 3
01
b10 (
b10 +
b100 )
b1101 "
#445000
1>
b1 ?
0:
1,
b1000 &
b10 ;
06
1-
b1000 %
b1000 /
02
1.
b10 7
b10 3
05
11
b1 (
b1 +
b100 )
b1110 "
#450000
b111 &
0#
0>
1'
1:
16
b111 %
b111 /
12
b10 ?
b11 ;
b11 7
b11 3
1=
19
15
10
b1111 (
b1111 +
b100 )
b111 !
b111 *
b0 "
#455000
b110 &
b110 %
b110 /
02
b10 3
01
b1110 (
b1110 +
b100 )
b1 "
#460000
b101 &
06
b101 %
b101 /
12
b10 7
b11 3
05
11
b1101 (
b1101 +
b100 )
b10 "
#465000
b100 &
b100 %
b100 /
02
b10 3
01
b1100 (
b1100 +
b100 )
b11 "
#470000
b11 &
0:
16
b11 %
b11 /
12
b10 ;
b11 7
b11 3
09
15
11
b1011 (
b1011 +
b100 )
b100 "
#475000
b10 &
b10 %
b10 /
02
b10 3
01
b1010 (
b1010 +
b100 )
b101 "
#480000
b1 &
06
b1 %
b1 /
12
b10 7
b11 3
05
11
b1001 (
b1001 +
b100 )
b110 "
#485000
b0 &
b0 %
b0 /
02
b10 3
01
b1000 (
b1000 +
b100 )
b111 "
#490000
1#
b1 &
1>
0'
1:
16
b1111 %
b1111 /
12
b1 ?
b11 ;
b11 7
b11 3
0=
19
15
11
b111 (
b111 +
b100 )
b1000 "
#495000
b10 &
b1110 %
b1110 /
02
b10 3
01
b110 (
b110 +
b100 )
b1001 "
#500000
b11 &
06
b1101 %
b1101 /
12
b10 7
b11 3
05
11
b101 (
b101 +
b100 )
b1010 "
#505000
b100 &
b1100 %
b1100 /
02
b10 3
01
b100 (
b100 +
b100 )
b1011 "
#510000
b101 &
0:
16
b1011 %
b1011 /
12
b10 ;
b11 7
b11 3
09
15
11
b11 (
b11 +
b100 )
b1100 "
#515000
b110 &
b1010 %
b1010 /
02
b10 3
01
b10 (
b10 +
b100 )
b1101 "
#520000
b111 &
06
b1001 %
b1001 /
12
b10 7
b11 3
05
11
b1 (
b1 +
b100 )
b1110 "
#525000
b1000 &
0#
b1000 %
b1000 /
02
1'
b10 3
b11 ?
1=
19
15
00
04
08
1<
b1111 (
b1111 +
b100 )
b1000 !
b1000 *
b0 "
#530000
0>
b10 ?
1:
0,
b1 ;
16
0-
b111 &
b1 7
b111 %
b111 /
12
0.
b1 3
01
b1110 (
b1110 +
b100 )
b1 "
#535000
b110 &
16
b110 %
b110 /
02
1.
b1 7
b10 3
05
11
b1101 (
b1101 +
b100 )
b10 "
#540000
06
b101 &
b0 7
b101 %
b101 /
12
0.
b1 3
01
b1100 (
b1100 +
b100 )
b11 "
#545000
1-
b100 &
1:
06
b100 %
b100 /
02
1.
b1 ;
b10 7
b10 3
09
15
11
b1011 (
b1011 +
b100 )
b100 "
#550000
0:
b0 ;
16
0-
b11 &
b1 7
b11 %
b11 /
12
0.
b1 3
01
b1010 (
b1010 +
b100 )
b101 "
#555000
b10 &
16
b10 %
b10 /
02
1.
b1 7
b10 3
05
11
b1001 (
b1001 +
b100 )
b110 "
#560000
06
b1 &
b0 7
b1 %
b1 /
12
0.
b1 3
01
b1000 (
b1000 +
b100 )
b111 "
#565000
1,
1-
0#
b0 &
0>
1'
0:
06
b0 %
b0 /
02
1.
b10 ?
b10 ;
b10 7
b10 3
0=
19
15
11
b111 (
b111 +
b100 )
b1000 "
#570000
1#
1>
0'
b1 ?
1:
0,
b1 ;
16
0-
b1 &
b1 7
b1111 %
b1111 /
12
0.
b1 3
01
b110 (
b110 +
b100 )
b1001 "
#575000
b10 &
16
b1110 %
b1110 /
02
1.
b1 7
b10 3
05
11
b101 (
b101 +
b100 )
b1010 "
#580000
b11 &
06
b0 7
b1101 %
b1101 /
12
0.
b1 3
01
b100 (
b100 +
b100 )
b1011 "
#585000
b100 &
1-
1:
06
b1100 %
b1100 /
02
1.
b1 ;
b10 7
b10 3
09
15
11
b11 (
b11 +
b100 )
b1100 "
#590000
0:
b0 ;
b101 &
16
0-
b1 7
b1011 %
b1011 /
12
0.
b1 3
01
b10 (
b10 +
b100 )
b1101 "
#595000
b110 &
16
b1010 %
b1010 /
02
1.
b1 7
b10 3
05
11
b1 (
b1 +
b100 )
b1110 "
#600000
1,
b1001 &
0#
1>
1'
0:
06
1-
b1001 %
b1001 /
12
b11 ?
b10 ;
b10 7
b11 3
1=
19
15
10
b1111 (
b1111 +
b100 )
b1001 !
b1001 *
b0 "
#605000
b1000 &
b1000 %
b1000 /
02
b10 3
01
b1110 (
b1110 +
b100 )
b1 "
#610000
0>
b10 ?
1:
0,
b1 ;
b111 &
16
0-
b111 %
b111 /
12
b1 7
b11 3
05
11
b1101 (
b1101 +
b100 )
b10 "
#615000
b110 &
b110 %
b110 /
02
b10 3
01
b1100 (
b1100 +
b100 )
b11 "
#620000
b101 &
1:
06
1-
b101 %
b101 /
12
b1 ;
b10 7
b11 3
09
15
11
b1011 (
b1011 +
b100 )
b100 "
#625000
b100 &
b100 %
b100 /
02
b10 3
01
b1010 (
b1010 +
b100 )
b101 "
#630000
0:
b0 ;
b11 &
16
0-
b11 %
b11 /
12
b1 7
b11 3
05
11
b1001 (
b1001 +
b100 )
b110 "
#635000
b10 &
b10 %
b10 /
02
b10 3
01
b1000 (
b1000 +
b100 )
b111 "
#640000
1,
0#
b1 &
0>
1'
0:
06
1-
b1 %
b1 /
12
b10 ?
b10 ;
b10 7
b11 3
0=
19
15
11
b111 (
b111 +
b100 )
b1000 "
#645000
b0 &
b0 %
b0 /
02
b10 3
01
b110 (
b110 +
b100 )
b1001 "
#650000
1#
1>
0'
b1 ?
1:
0,
b1 ;
b1 &
16
0-
b1111 %
b1111 /
12
b1 7
b11 3
05
11
b101 (
b101 +
b100 )
b1010 "
#655000
b10 &
b1110 %
b1110 /
02
b10 3
01
b100 (
b100 +
b100 )
b1011 "
#660000
b11 &
1:
06
1-
b1101 %
b1101 /
12
b1 ;
b10 7
b11 3
09
15
11
b11 (
b11 +
b100 )
b1100 "
#665000
b100 &
b1100 %
b1100 /
02
b10 3
01
b10 (
b10 +
b100 )
b1101 "
#670000
0:
b101 &
b0 ;
16
0-
b1011 %
b1011 /
12
b1 7
b11 3
05
11
b1 (
b1 +
b100 )
b1110 "
#675000
b1010 &
1,
0#
1>
1'
0:
b1010 %
b1010 /
02
1-
b11 ?
b10 ;
b10 3
b11 7
1=
19
15
00
14
b1111 (
b1111 +
b100 )
b1010 !
b1010 *
b0 "
#680000
06
b1001 &
b10 7
b1001 %
b1001 /
12
0.
b1 3
01
b1110 (
b1110 +
b100 )
b1 "
#685000
1>
b11 ?
0:
1,
b10 ;
b1000 &
06
1-
b1000 %
b1000 /
02
1.
b10 7
b10 3
05
11
b1101 (
b1101 +
b100 )
b10 "
#690000
0>
b10 ?
1:
0,
b1 ;
16
0-
b111 &
b1 7
b111 %
b111 /
12
0.
b1 3
01
b1100 (
b1100 +
b100 )
b11 "
#695000
b110 &
1:
16
1-
b110 %
b110 /
02
1.
b1 ;
b11 7
b10 3
09
15
11
b1011 (
b1011 +
b100 )
b100 "
#700000
06
b101 &
b10 7
b101 %
b101 /
12
0.
b1 3
01
b1010 (
b1010 +
b100 )
b101 "
#705000
1:
b1 ;
b100 &
06
1-
b100 %
b100 /
02
1.
b10 7
b10 3
05
11
b1001 (
b1001 +
b100 )
b110 "
#710000
0:
b0 ;
16
0-
b11 &
b1 7
b11 %
b11 /
12
0.
b1 3
01
b1000 (
b1000 +
b100 )
b111 "
#715000
1,
0#
b10 &
0>
1'
0:
16
1-
b10 %
b10 /
02
1.
b10 ?
b10 ;
b11 7
b10 3
0=
19
15
11
b111 (
b111 +
b100 )
b1000 "
#720000
06
b1 &
b10 7
b1 %
b1 /
12
0.
b1 3
01
b110 (
b110 +
b100 )
b1001 "
#725000
0#
0>
1'
b10 ?
0:
1,
b10 ;
b0 &
06
1-
b0 %
b0 /
02
1.
b10 7
b10 3
05
11
b101 (
b101 +
b100 )
b1010 "
#730000
1#
1>
0'
b1 ?
1:
0,
b1 ;
16
0-
b1 &
b1 7
b1111 %
b1111 /
12
0.
b1 3
01
b100 (
b100 +
b100 )
b1011 "
#735000
b10 &
1:
16
1-
b1110 %
b1110 /
02
1.
b1 ;
b11 7
b10 3
09
15
11
b11 (
b11 +
b100 )
b1100 "
#740000
b11 &
06
b10 7
b1101 %
b1101 /
12
0.
b1 3
01
b10 (
b10 +
b100 )
b1101 "
#745000
1:
b100 &
b1 ;
06
1-
b1100 %
b1100 /
02
1.
b10 7
b10 3
05
11
b1 (
b1 +
b100 )
b1110 "
#750000
b1011 &
0#
1>
1'
0:
1,
16
b1011 %
b1011 /
12
b11 ?
b10 ;
b11 7
b11 3
1=
19
15
10
b1111 (
b1111 +
b100 )
b1011 !
b1011 *
b0 "
#755000
b1010 &
b1010 %
b1010 /
02
b10 3
01
b1110 (
b1110 +
b100 )
b1 "
#760000
b1001 &
06
b1001 %
b1001 /
12
b10 7
b11 3
05
11
b1101 (
b1101 +
b100 )
b10 "
#765000
b1000 &
b1000 %
b1000 /
02
b10 3
01
b1100 (
b1100 +
b100 )
b11 "
#770000
0>
b10 ?
b111 &
1:
0,
16
b111 %
b111 /
12
b1 ;
b11 7
b11 3
09
15
11
b1011 (
b1011 +
b100 )
b100 "
#775000
b110 &
b110 %
b110 /
02
b10 3
01
b1010 (
b1010 +
b100 )
b101 "
#780000
b101 &
06
b101 %
b101 /
12
b10 7
b11 3
05
11
b1001 (
b1001 +
b100 )
b110 "
#785000
b100 &
b100 %
b100 /
02
b10 3
01
b1000 (
b1000 +
b100 )
b111 "
#790000
0#
b11 &
0>
1'
0:
1,
16
b11 %
b11 /
12
b10 ?
b10 ;
b11 7
b11 3
0=
19
15
11
b111 (
b111 +
b100 )
b1000 "
#795000
b10 &
b10 %
b10 /
02
b10 3
01
b110 (
b110 +
b100 )
b1001 "
#800000
b1 &
06
b1 %
b1 /
12
b10 7
b11 3
05
11
b101 (
b101 +
b100 )
b1010 "
#805000
b0 &
b0 %
b0 /
02
b10 3
01
b100 (
b100 +
b100 )
b1011 "
#810000
1#
1>
0'
b1 ?
b1 &
1:
0,
16
b1111 %
b1111 /
12
b1 ;
b11 7
b11 3
09
15
11
b11 (
b11 +
b100 )
b1100 "
#815000
b10 &
b1110 %
b1110 /
02
b10 3
01
b10 (
b10 +
b100 )
b1101 "
#820000
b11 &
06
b1101 %
b1101 /
12
b10 7
b11 3
05
11
b1 (
b1 +
b100 )
b1110 "
#825000
b1100 &
0#
1>
1'
b1100 %
b1100 /
02
1,
b11 ?
b10 3
b11 ;
1=
19
15
00
04
18
b1111 (
b1111 +
b100 )
b1100 !
b1100 *
b0 "
#830000
0:
b10 ;
16
0-
b1011 &
b1 7
b1011 %
b1011 /
12
0.
b1 3
01
b1110 (
b1110 +
b100 )
b1 "
#835000
b1010 &
16
b1010 %
b1010 /
02
1.
b1 7
b10 3
05
11
b1101 (
b1101 +
b100 )
b10 "
#840000
06
b1001 &
b0 7
b1001 %
b1001 /
12
0.
b1 3
01
b1100 (
b1100 +
b100 )
b11 "
#845000
1>
1-
b11 ?
b1000 &
0:
1,
06
b1000 %
b1000 /
02
1.
b10 ;
b10 7
b10 3
09
15
11
b1011 (
b1011 +
b100 )
b100 "
#850000
0>
b10 ?
1:
0,
b1 ;
16
0-
b111 &
b1 7
b111 %
b111 /
12
0.
b1 3
01
b1010 (
b1010 +
b100 )
b101 "
#855000
b110 &
16
b110 %
b110 /
02
1.
b1 7
b10 3
05
11
b1001 (
b1001 +
b100 )
b110 "
#860000
06
b101 &
b0 7
b101 %
b101 /
12
0.
b1 3
01
b1000 (
b1000 +
b100 )
b111 "
#865000
1-
0#
b100 &
0>
1'
1:
1,
06
b100 %
b100 /
02
1.
b10 ?
b11 ;
b10 7
b10 3
0=
19
15
11
b111 (
b111 +
b100 )
b1000 "
#870000
0:
b10 ;
16
0-
b11 &
b1 7
b11 %
b11 /
12
0.
b1 3
01
b110 (
b110 +
b100 )
b1001 "
#875000
b10 &
16
b10 %
b10 /
02
1.
b1 7
b10 3
05
11
b101 (
b101 +
b100 )
b1010 "
#880000
06
b1 &
b0 7
b1 %
b1 /
12
0.
b1 3
01
b100 (
b100 +
b100 )
b1011 "
#885000
0#
0>
1'
1-
b10 ?
b0 &
0:
1,
06
b0 %
b0 /
02
1.
b10 ;
b10 7
b10 3
09
15
11
b11 (
b11 +
b100 )
b1100 "
#890000
1#
1>
0'
b1 ?
1:
0,
b1 ;
16
0-
b1 &
b1 7
b1111 %
b1111 /
12
0.
b1 3
01
b10 (
b10 +
b100 )
b1101 "
#895000
b10 &
16
b1110 %
b1110 /
02
1.
b1 7
b10 3
05
11
b1 (
b1 +
b100 )
b1110 "
#900000
b1101 &
0#
1>
1'
1:
1,
06
1-
b1101 %
b1101 /
12
b11 ?
b11 ;
b10 7
b11 3
1=
19
15
10
b1111 (
b1111 +
b100 )
b1101 !
b1101 *
b0 "
#905000
b1100 &
b1100 %
b1100 /
02
b10 3
01
b1110 (
b1110 +
b100 )
b1 "
#910000
0:
b10 ;
b1011 &
16
0-
b1011 %
b1011 /
12
b1 7
b11 3
05
11
b1101 (
b1101 +
b100 )
b10 "
#915000
b1010 &
b1010 %
b1010 /
02
b10 3
01
b1100 (
b1100 +
b100 )
b11 "
#920000
1>
b11 ?
b1001 &
0:
1,
06
1-
b1001 %
b1001 /
12
b10 ;
b10 7
b11 3
09
15
11
b1011 (
b1011 +
b100 )
b100 "
#925000
b1000 &
b1000 %
b1000 /
02
b10 3
01
b1010 (
b1010 +
b100 )
b101 "
#930000
0>
b10 ?
1:
0,
b1 ;
b111 &
16
0-
b111 %
b111 /
12
b1 7
b11 3
05
11
b1001 (
b1001 +
b100 )
b110 "
#935000
b110 &
b110 %
b110 /
02
b10 3
01
b1000 (
b1000 +
b100 )
b111 "
#940000
0#
b101 &
0>
1'
1:
1,
06
1-
b101 %
b101 /
12
b10 ?
b11 ;
b10 7
b11 3
0=
19
15
11
b111 (
b111 +
b100 )
b1000 "
#945000
b100 &
b100 %
b100 /
02
b10 3
01
b110 (
b110 +
b100 )
b1001 "
#950000
0:
b10 ;
b11 &
16
0-
b11 %
b11 /
12
b1 7
b11 3
05
11
b101 (
b101 +
b100 )
b1010 "
#955000
b10 &
b10 %
b10 /
02
b10 3
01
b100 (
b100 +
b100 )
b1011 "
#960000
0#
0>
1'
b10 ?
b1 &
0:
1,
06
1-
b1 %
b1 /
12
b10 ;
b10 7
b11 3
09
15
11
b11 (
b11 +
b100 )
b1100 "
#965000
b0 &
b0 %
b0 /
02
b10 3
01
b10 (
b10 +
b100 )
b1101 "
#970000
1#
1>
0'
b1 ?
1:
0,
b1 ;
b1 &
16
0-
b1111 %
b1111 /
12
b1 7
b11 3
05
11
b1 (
b1 +
b100 )
b1110 "
#975000
b1110 &
0#
1>
1'
1:
1,
b1110 %
b1110 /
02
1-
b11 ?
b11 ;
b10 3
b11 7
1=
19
15
00
14
b1111 (
b1111 +
b100 )
b1110 !
b1110 *
b0 "
#980000
06
b1101 &
b10 7
b1101 %
b1101 /
12
0.
b1 3
01
b1110 (
b1110 +
b100 )
b1 "
#985000
1:
b11 ;
b1100 &
06
1-
b1100 %
b1100 /
02
1.
b10 7
b10 3
05
11
b1101 (
b1101 +
b100 )
b10 "
