Restador/build/restador_tb.vcd
$date
	Fri Sep 06 11:55:27 2024
$end
$version
	Icarus Verilog
$end
$timescale
	1ps
$end
$scope module Restador_tb $end
$scope module uut $end
$var wire 5 ! minuendo [4:0] $end
$var wire 5 " sustraendo [4:0] $end
$var wire 5 # restador [4:0] $end
$var wire 1 $ c4 $end
$var wire 1 % c3 $end
$var wire 1 & c2 $end
$var wire 1 ' c1 $end
$var wire 1 ( C_out $end
$var reg 5 ) a2 [4:0] $end
$var integer 32 * i [31:0] $end
$scope module s0 $end
$var wire 1 + A $end
$var wire 1 , B $end
$var wire 1 - Ci $end
$var wire 1 . Sum $end
$var wire 1 ' Cout $end
$var reg 2 / result [1:0] $end
$upscope $end
$scope module s1 $end
$var wire 1 0 A $end
$var wire 1 1 B $end
$var wire 1 ' Ci $end
$var wire 1 2 Sum $end
$var wire 1 & Cout $end
$var reg 2 3 result [1:0] $end
$upscope $end
$scope module s2 $end
$var wire 1 4 A $end
$var wire 1 5 B $end
$var wire 1 & Ci $end
$var wire 1 6 Sum $end
$var wire 1 % Cout $end
$var reg 2 7 result [1:0] $end
$upscope $end
$scope module s3 $end
$var wire 1 8 A $end
$var wire 1 9 B $end
$var wire 1 % Ci $end
$var wire 1 : Sum $end
$var wire 1 $ Cout $end
$var reg 2 ; result [1:0] $end
$upscope $end
$scope module s4 $end
$var wire 1 < A $end
$var wire 1 = B $end
$var wire 1 $ Ci $end
$var wire 1 > Sum $end
$var wire 1 ( Cout $end
$var reg 2 ? result [1:0] $end
$upscope $end
$upscope $end
$upscope $end
$enddefinitions $end
$comment Show the parameter values. $end
$dumpall
$end
#0
$dumpvars
b0 ?
0>
0=
0<
b0 ;
0:
09
08
b0 7
06
05
04
b0 3
02
01
00
b1 /
1.
0-
0,
1+
b101 *
b0 )
0(
0'
0&
0%
0$
b1 #
b0 "
b1 !
$end
#5000
1(
1$
1%
1&
0.
1'
0>
0:
06
b0 #
02
b10 /
b10 ?
b10 ;
b10 7
b10 3
1,
1=
19
15
11
b11111 )
b101 *
b1 "
#10000
1>
0(
b1 ?
1:
0$
b1 ;
16
0%
b1 7
12
0&
b1 3
b11111 #
1.
0'
b1 /
0,
b11110 )
b101 *
b10 "
#15000
0.
1'
b11110 #
12
b10 /
b1 3
1,
01
b11101 )
b101 *
b11 "
#20000
02
b0 3
b11101 #
1.
0'
b1 /
0,
b11100 )
b101 *
b100 "
#25000
1&
0.
1'
16
b11100 #
02
b10 /
b1 7
b10 3
1,
05
11
b11011 )
b101 *
b101 "
#30000
06
b0 7
12
0&
b1 3
b11011 #
1.
0'
b1 /
0,
b11010 )
b101 *
b110 "
#35000
0.
1'
b11010 #
12
b10 /
b1 3
1,
01
b11001 )
b101 *
b111 "
#40000
02
b0 3
b11001 #
1.
0'
b1 /
0,
b11000 )
b101 *
b1000 "
#45000
1%
1&
0.
1'
1:
06
b11000 #
02
b10 /
b1 ;
b10 7
b10 3
1,
09
15
11
b10111 )
b101 *
b1001 "
#50000
0:
b0 ;
16
0%
b1 7
12
0&
b1 3
b10111 #
1.
0'
b1 /
0,
b10110 )
b101 *
b1010 "
#55000
0.
1'
b10110 #
12
b10 /
b1 3
1,
01
b10101 )
b101 *
b1011 "
#60000
02
b0 3
b10101 #
1.
0'
b1 /
0,
b10100 )
b101 *
b1100 "
#65000
1&
0.
1'
16
b10100 #
02
b10 /
b1 7
b10 3
1,
05
11
b10011 )
b101 *
b1101 "
#70000
06
b0 7
12
0&
b1 3
b10011 #
1.
0'
b1 /
0,
b10010 )
b101 *
b1110 "
#75000
0>
b10 #
0.
b0 ?
b0 /
01
0=
0+
10
b0 )
b101 *
b10 !
b0 "
#80000
1(
1$
1%
1.
0>
0:
06
b1 #
02
1&
b1 /
b10 ?
b10 ;
b10 7
b10 3
1,
1=
19
15
11
b11111 )
b101 *
b1 "
#85000
b0 #
0.
b0 /
0,
b11110 )
b101 *
b10 "
#90000
1>
0(
b1 ?
1:
0$
b1 ;
16
0%
b1 7
1.
b11111 #
12
0&
b1 /
b1 3
1,
01
b11101 )
b101 *
b11 "
#95000
b11110 #
0.
b0 /
0,
b11100 )
b101 *
b100 "
#100000
1.
16
b11101 #
02
1&
b1 /
b1 7
b10 3
1,
05
11
b11011 )
b101 *
b101 "
#105000
b11100 #
0.
b0 /
0,
b11010 )
b101 *
b110 "
#110000
06
b0 7
1.
b11011 #
12
0&
b1 /
b1 3
1,
01
b11001 )
b101 *
b111 "
#115000
b11010 #
0.
b0 /
0,
b11000 )
b101 *
b1000 "
#120000
1%
1.
1:
06
b11001 #
02
1&
b1 /
b1 ;
b10 7
b10 3
1,
09
15
11
b10111 )
b101 *
b1001 "
#125000
b11000 #
0.
b0 /
0,
b10110 )
b101 *
b1010 "
#130000
0:
b0 ;
16
0%
b1 7
1.
b10111 #
12
0&
b1 /
b1 3
1,
01
b10101 )
b101 *
b1011 "
#135000
b10110 #
0.
b0 /
0,
b10100 )
b101 *
b1100 "
#140000
1.
16
b10101 #
02
1&
b1 /
b1 7
b10 3
1,
05
11
b10011 )
b101 *
b1101 "
#145000
b10100 #
0.
b0 /
0,
b10010 )
b101 *
b1110 "
#150000
06
b0 7
12
0&
0>
b11 #
1.
b1 3
b0 ?
b1 /
01
0=
1+
b0 )
b101 *
b11 !
b0 "
#155000
1(
1$
1%
0.
1'
0>
0:
06
b10 #
12
1&
b10 /
b10 ?
b10 ;
b10 7
b11 3
1,
1=
19
15
11
b11111 )
b101 *
b1 "
#160000
02
b10 3
b1 #
1.
0'
b1 /
0,
b11110 )
b101 *
b10 "
#165000
0>
1(
b10 ?
0:
1$
b10 ;
06
1%
b10 7
0.
1'
b0 #
02
1&
b10 /
b10 3
1,
01
b11101 )
b101 *
b11 "
#170000
1>
0(
b1 ?
1:
0$
b1 ;
16
0%
b1 7
12
0&
b1 3
b11111 #
1.
0'
b1 /
0,
b11100 )
b101 *
b100 "
#175000
0.
1'
16
b11110 #
12
1&
b10 /
b1 7
b11 3
1,
05
11
b11011 )
b101 *
b101 "
#180000
02
b10 3
b11101 #
1.
0'
b1 /
0,
b11010 )
b101 *
b110 "
#185000
16
b1 7
0.
1'
b11100 #
02
1&
b10 /
b10 3
1,
01
b11001 )
b101 *
b111 "
#190000
06
b0 7
12
0&
b1 3
b11011 #
1.
0'
b1 /
0,
b11000 )
b101 *
b1000 "
#195000
1%
0.
1'
1:
06
b11010 #
12
1&
b10 /
b1 ;
b10 7
b11 3
1,
09
15
11
b10111 )
b101 *
b1001 "
#200000
02
b10 3
b11001 #
1.
0'
b1 /
0,
b10110 )
b101 *
b1010 "
#205000
1:
b1 ;
06
1%
b10 7
0.
1'
b11000 #
02
1&
b10 /
b10 3
1,
01
b10101 )
b101 *
b1011 "
#210000
0:
b0 ;
16
0%
b1 7
12
0&
b1 3
b10111 #
1.
0'
b1 /
0,
b10100 )
b101 *
b1100 "
#215000
0.
1'
16
b10110 #
12
1&
b10 /
b1 7
b11 3
1,
05
11
b10011 )
b101 *
b1101 "
#220000
02
b10 3
b10101 #
1.
0'
b1 /
0,
b10010 )
b101 *
b1110 "
#225000
0:
b0 ;
0>
0.
0&
b100 #
16
0%
b0 ?
b0 /
b0 3
b1 7
01
0=
0+
00
14
b0 )
b101 *
b100 !
b0 "
#230000
1(
1$
1.
0>
0:
06
1%
b11 #
12
b1 /
b10 ?
b10 ;
b10 7
b1 3
1,
1=
19
15
11
b11111 )
b101 *
b1 "
#235000
b10 #
0.
b0 /
0,
b11110 )
b101 *
b10 "
#240000
1.
b1 #
02
b1 /
b0 3
1,
01
b11101 )
b101 *
b11 "
#245000
b0 #
0.
b0 /
0,
b11100 )
b101 *
b100 "
#250000
1>
0(
b1 ?
1:
0$
b1 ;
1.
16
0%
b11111 #
12
b1 /
b1 7
b1 3
1,
05
11
b11011 )
b101 *
b101 "
#255000
b11110 #
0.
b0 /
0,
b11010 )
b101 *
b110 "
#260000
1.
b11101 #
02
b1 /
b0 3
1,
01
b11001 )
b101 *
b111 "
#265000
b11100 #
0.
b0 /
0,
b11000 )
b101 *
b1000 "
#270000
1.
1:
06
1%
b11011 #
12
b1 /
b1 ;
b10 7
b1 3
1,
09
15
11
b10111 )
b101 *
b1001 "
#275000
b11010 #
0.
b0 /
0,
b10110 )
b101 *
b1010 "
#280000
1.
b11001 #
02
b1 /
b0 3
1,
01
b10101 )
b101 *
b1011 "
#285000
b11000 #
0.
b0 /
0,
b10100 )
b101 *
b1100 "
#290000
0:
b0 ;
1.
16
0%
b10111 #
12
b1 /
b1 7
b1 3
1,
05
11
b10011 )
b101 *
b1101 "
#295000
b10110 #
0.
b0 /
0,
b10010 )
b101 *
b1110 "
#300000
02
0>
b101 #
1.
b0 3
b0 ?
b1 /
01
0=
1+
b0 )
b101 *
b101 !
b0 "
#305000
1(
1&
1$
0.
1'
0>
0:
16
1%
b100 #
02
b10 /
b10 ?
b10 ;
b11 7
b10 3
1,
1=
19
15
11
b11111 )
b101 *
b1 "
#310000
06
b10 7
12
0&
b1 3
b11 #
1.
0'
b1 /
0,
b11110 )
b101 *
b10 "
#315000
0.
1'
b10 #
12
b10 /
b1 3
1,
01
b11101 )
b101 *
b11 "
#320000
02
b0 3
b1 #
1.
0'
b1 /
0,
b11100 )
b101 *
b100 "
#325000
0>
1(
b10 ?
1&
0:
1$
b10 ;
0.
1'
06
1%
b0 #
02
b10 /
b10 7
b10 3
1,
05
11
b11011 )
b101 *
b101 "
#330000
1>
0(
b1 ?
1:
0$
b1 ;
16
0%
b1 7
12
0&
b1 3
b11111 #
1.
0'
b1 /
0,
b11010 )
b101 *
b110 "
#335000
0.
1'
b11110 #
12
b10 /
b1 3
1,
01
b11001 )
b101 *
b111 "
#340000
02
b0 3
b11101 #
1.
0'
b1 /
0,
b11000 )
b101 *
b1000 "
#345000
1&
0.
1'
1:
16
1%
b11100 #
02
b10 /
b1 ;
b11 7
b10 3
1,
09
15
11
b10111 )
b101 *
b1001 "
#350000
06
b10 7
12
0&
b1 3
b11011 #
1.
0'
b1 /
0,
b10110 )
b101 *
b1010 "
#355000
0.
1'
b11010 #
12
b10 /
b1 3
1,
01
b10101 )
b101 *
b1011 "
#360000
02
b0 3
b11001 #
1.
0'
b1 /
0,
b10100 )
b101 *
b1100 "
#365000
1&
1:
b1 ;
0.
1'
06
1%
b11000 #
02
b10 /
b10 7
b10 3
1,
05
11
b10011 )
b101 *
b1101 "
#370000
0:
b0 ;
16
0%
b1 7
12
0&
b1 3
b10111 #
1.
0'
b1 /
0,
b10010 )
b101 *
b1110 "
#375000
0>
b110 #
0.
b0 ?
b0 /
01
0=
0+
10
b0 )
b101 *
b110 !
b0 "
#380000
1(
1$
1.
0>
0:
16
1%
b101 #
02
1&
b1 /
b10 ?
b10 ;
b11 7
b10 3
1,
1=
19
15
11
b11111 )
b101 *
b1 "
#385000
b100 #
0.
b0 /
0,
b11110 )
b101 *
b10 "
#390000
06
b10 7
1.
b11 #
12
0&
b1 /
b1 3
1,
01
b11101 )
b101 *
b11 "
#395000
b10 #
0.
b0 /
0,
b11100 )
b101 *
b100 "
#400000
0>
1(
b10 ?
0:
1$
b10 ;
1.
06
1%
b1 #
02
1&
b1 /
b10 7
b10 3
1,
05
11
b11011 )
b101 *
b101 "
#405000
b0 #
0.
b0 /
0,
b11010 )
b101 *
b110 "
#410000
1>
0(
b1 ?
1:
0$
b1 ;
16
0%
b1 7
1.
b11111 #
12
0&
b1 /
b1 3
1,
01
b11001 )
b101 *
b111 "
#415000
b11110 #
0.
b0 /
0,
b11000 )
b101 *
b1000 "
#420000
1.
1:
16
1%
b11101 #
02
1&
b1 /
b1 ;
b11 7
b10 3
1,
09
15
11
b10111 )
b101 *
b1001 "
#425000
b11100 #
0.
b0 /
0,
b10110 )
b101 *
b1010 "
#430000
06
b10 7
1.
b11011 #
12
0&
b1 /
b1 3
1,
01
b10101 )
b101 *
b1011 "
#435000
b11010 #
0.
b0 /
0,
b10100 )
b101 *
b1100 "
#440000
1:
b1 ;
1.
06
1%
b11001 #
02
1&
b1 /
b10 7
b10 3
1,
05
11
b10011 )
b101 *
b1101 "
#445000
b11000 #
0.
b0 /
0,
b10010 )
b101 *
b1110 "
#450000
0:
b0 ;
16
0%
b1 7
12
0&
0>
b111 #
1.
b1 3
b0 ?
b1 /
01
0=
1+
b0 )
b101 *
b111 !
b0 "
#455000
1(
1$
0.
1'
0>
0:
16
1%
b110 #
12
1&
b10 /
b10 ?
b10 ;
b11 7
b11 3
1,
1=
19
15
11
b11111 )
b101 *
b1 "
#460000
02
b10 3
b101 #
1.
0'
b1 /
0,
b11110 )
b101 *
b10 "
#465000
16
b11 7
0.
1'
b100 #
02
1&
b10 /
b10 3
1,
01
b11101 )
b101 *
b11 "
#470000
06
b10 7
12
0&
b1 3
b11 #
1.
0'
b1 /
0,
b11100 )
b101 *
b100 "
#475000
0>
1(
b10 ?
0:
1$
b10 ;
0.
1'
06
1%
b10 #
12
1&
b10 /
b10 7
b11 3
1,
05
11
b11011 )
b101 *
b101 "
#480000
02
b10 3
b1 #
1.
0'
b1 /
0,
b11010 )
b101 *
b110 "
#485000
0>
1(
b10 ?
0:
1$
b10 ;
06
1%
b10 7
0.
1'
b0 #
02
1&
b10 /
b10 3
1,
01
b11001 )
b101 *
b111 "
#490000
1>
0(
b1 ?
1:
0$
b1 ;
16
0%
b1 7
12
0&
b1 3
b11111 #
1.
0'
b1 /
0,
b11000 )
b101 *
b1000 "
#495000
0.
1'
1:
16
1%
b11110 #
12
1&
b10 /
b1 ;
b11 7
b11 3
1,
09
15
11
b10111 )
b101 *
b1001 "
#500000
02
b10 3
b11101 #
1.
0'
b1 /
0,
b10110 )
b101 *
b1010 "
#505000
16
b11 7
0.
1'
b11100 #
02
1&
b10 /
b10 3
1,
01
b10101 )
b101 *
b1011 "
#510000
06
b10 7
12
0&
b1 3
b11011 #
1.
0'
b1 /
0,
b10100 )
b101 *
b1100 "
#515000
1:
b1 ;
0.
1'
06
1%
b11010 #
12
1&
b10 /
b10 7
b11 3
1,
05
11
b10011 )
b101 *
b1101 "
#520000
02
b10 3
b11001 #
1.
0'
b1 /
0,
b10010 )
b101 *
b1110 "
#525000
0>
0.
0&
06
0%
b1000 #
1:
0$
b0 ?
b0 /
b0 3
b0 7
b1 ;
01
0=
0+
00
04
18
b0 )
b101 *
b1000 !
b0 "
#530000
1(
1.
0>
0:
1$
16
b111 #
12
b1 /
b10 ?
b10 ;
b1 7
b1 3
1,
1=
19
15
11
b11111 )
b101 *
b1 "
#535000
b110 #
0.
b0 /
0,
b11110 )
b101 *
b10 "
#540000
1.
b101 #
02
b1 /
b0 3
1,
01
b11101 )
b101 *
b11 "
#545000
b100 #
0.
b0 /
0,
b11100 )
b101 *
b100 "
#550000
1.
06
b11 #
12
b1 /
b0 7
b1 3
1,
05
11
b11011 )
b101 *
b101 "
#555000
b10 #
0.
b0 /
0,
b11010 )
b101 *
b110 "
#560000
1.
b1 #
02
b1 /
b0 3
1,
01
b11001 )
b101 *
b111 "
#565000
b0 #
0.
b0 /
0,
b11000 )
b101 *
b1000 "
#570000
1>
0(
b1 ?
1.
1:
0$
16
b11111 #
12
b1 /
b1 ;
b1 7
b1 3
1,
09
15
11
b10111 )
b101 *
b1001 "
#575000
b11110 #
0.
b0 /
0,
b10110 )
b101 *
b1010 "
#580000
1.
b11101 #
02
b1 /
b0 3
1,
01
b10101 )
b101 *
b1011 "
#585000
b11100 #
0.
b0 /
0,
b10100 )
b101 *
b1100 "
#590000
1.
06
b11011 #
12
b1 /
b0 7
b1 3
1,
05
11
b10011 )
b101 *
b1101 "
#595000
b11010 #
0.
b0 /
0,
b10010 )
b101 *
b1110 "
#600000
02
0>
b1001 #
1.
b0 3
b0 ?
b1 /
01
0=
1+
b0 )
b101 *
b1001 !
b0 "
#605000
1%
1&
1(
0.
1'
0>
1:
1$
06
b1000 #
02
b10 /
b10 ?
b11 ;
b10 7
b10 3
1,
1=
19
15
11
b11111 )
b101 *
b1 "
#610000
0:
b10 ;
16
0%
b1 7
12
0&
b1 3
b111 #
1.
0'
b1 /
0,
b11110 )
b101 *
b10 "
#615000
0.
1'
b110 #
12
b10 /
b1 3
1,
01
b11101 )
b101 *
b11 "
#620000
02
b0 3
b101 #
1.
0'
b1 /
0,
b11100 )
b101 *
b100 "
#625000
1&
0.
1'
16
b100 #
02
b10 /
b1 7
b10 3
1,
05
11
b11011 )
b101 *
b101 "
#630000
06
b0 7
12
0&
b1 3
b11 #
1.
0'
b1 /
0,
b11010 )
b101 *
b110 "
#635000
0.
1'
b10 #
12
b10 /
b1 3
1,
01
b11001 )
b101 *
b111 "
#640000
02
b0 3
b1 #
1.
0'
b1 /
0,
b11000 )
b101 *
b1000 "
#645000
1%
1&
0>
1(
b10 ?
0.
1'
0:
1$
06
b0 #
02
b10 /
b10 ;
b10 7
b10 3
1,
09
15
11
b10111 )
b101 *
b1001 "
#650000
1>
0(
b1 ?
1:
0$
b1 ;
16
0%
b1 7
12
0&
b1 3
b11111 #
1.
0'
b1 /
0,
b10110 )
b101 *
b1010 "
#655000
0.
1'
b11110 #
12
b10 /
b1 3
1,
01
b10101 )
b101 *
b1011 "
#660000
02
b0 3
b11101 #
1.
0'
b1 /
0,
b10100 )
b101 *
b1100 "
#665000
1&
0.
1'
16
b11100 #
02
b10 /
b1 7
b10 3
1,
05
11
b10011 )
b101 *
b1101 "
#670000
06
b0 7
12
0&
b1 3
b11011 #
1.
0'
b1 /
0,
b10010 )
b101 *
b1110 "
#675000
0>
b1010 #
0.
b0 ?
b0 /
01
0=
0+
10
b0 )
b101 *
b1010 !
b0 "
#680000
1(
1%
1.
0>
1:
1$
06
b1001 #
02
1&
b1 /
b10 ?
b11 ;
b10 7
b10 3
1,
1=
19
15
11
b11111 )
b101 *
b1 "
#685000
b1000 #
0.
b0 /
0,
b11110 )
b101 *
b10 "
#690000
0:
b10 ;
16
0%
b1 7
1.
b111 #
12
0&
b1 /
b1 3
1,
01
b11101 )
b101 *
b11 "
#695000
b110 #
0.
b0 /
0,
b11100 )
b101 *
b100 "
#700000
1.
16
b101 #
02
1&
b1 /
b1 7
b10 3
1,
05
11
b11011 )
b101 *
b101 "
#705000
b100 #
0.
b0 /
0,
b11010 )
b101 *
b110 "
#710000
06
b0 7
1.
b11 #
12
0&
b1 /
b1 3
1,
01
b11001 )
b101 *
b111 "
#715000
b10 #
0.
b0 /
0,
b11000 )
b101 *
b1000 "
#720000
0>
1(
1%
b10 ?
1.
0:
1$
06
b1 #
02
1&
b1 /
b10 ;
b10 7
b10 3
1,
09
15
11
b10111 )
b101 *
b1001 "
#725000
b0 #
0.
b0 /
0,
b10110 )
b101 *
b1010 "
#730000
1>
0(
b1 ?
1:
0$
b1 ;
16
0%
b1 7
1.
b11111 #
12
0&
b1 /
b1 3
1,
01
b10101 )
b101 *
b1011 "
#735000
b11110 #
0.
b0 /
0,
b10100 )
b101 *
b1100 "
#740000
1.
16
b11101 #
02
1&
b1 /
b1 7
b10 3
1,
05
11
b10011 )
b101 *
b1101 "
#745000
b11100 #
0.
b0 /
0,
b10010 )
b101 *
b1110 "
#750000
06
b0 7
12
0&
0>
b1011 #
1.
b1 3
b0 ?
b1 /
01
0=
1+
b0 )
b101 *
b1011 !
b0 "
#755000
1(
1%
0.
1'
0>
1:
1$
06
b1010 #
12
1&
b10 /
b10 ?
b11 ;
b10 7
b11 3
1,
1=
19
15
11
b11111 )
b101 *
b1 "
#760000
02
b10 3
b1001 #
1.
0'
b1 /
0,
b11110 )
b101 *
b10 "
#765000
1:
b11 ;
06
1%
b10 7
0.
1'
b1000 #
02
1&
b10 /
b10 3
1,
01
b11101 )
b101 *
b11 "
#770000
0:
b10 ;
16
0%
b1 7
12
0&
b1 3
b111 #
1.
0'
b1 /
0,
b11100 )
b101 *
b100 "
#775000
0.
1'
16
b110 #
12
1&
b10 /
b1 7
b11 3
1,
05
11
b11011 )
b101 *
b101 "
#780000
02
b10 3
b101 #
1.
0'
b1 /
0,
b11010 )
b101 *
b110 "
#785000
16
b1 7
0.
1'
b100 #
02
1&
b10 /
b10 3
1,
01
b11001 )
b101 *
b111 "
#790000
06
b0 7
12
0&
b1 3
b11 #
1.
0'
b1 /
0,
b11000 )
b101 *
b1000 "
#795000
0>
1(
1%
b10 ?
0.
1'
0:
1$
06
b10 #
12
1&
b10 /
b10 ;
b10 7
b11 3
1,
09
15
11
b10111 )
b101 *
b1001 "
#800000
02
b10 3
b1 #
1.
0'
b1 /
0,
b10110 )
b101 *
b1010 "
#805000
0>
1(
b10 ?
0:
1$
b10 ;
06
1%
b10 7
0.
1'
b0 #
02
1&
b10 /
b10 3
1,
01
b10101 )
b101 *
b1011 "
#810000
1>
0(
b1 ?
1:
0$
b1 ;
16
0%
b1 7
12
0&
b1 3
b11111 #
1.
0'
b1 /
0,
b10100 )
b101 *
b1100 "
#815000
0.
1'
16
b11110 #
12
1&
b10 /
b1 7
b11 3
1,
05
11
b10011 )
b101 *
b1101 "
#820000
02
b10 3
b11101 #
1.
0'
b1 /
0,
b10010 )
b101 *
b1110 "
#825000
1:
0$
b1 ;
0>
0.
0&
b1100 #
16
0%
b0 ?
b0 /
b0 3
b1 7
01
0=
0+
00
14
b0 )
b101 *
b1100 !
b0 "
#830000
1(
1.
0>
1:
1$
06
1%
b1011 #
12
b1 /
b10 ?
b11 ;
b10 7
b1 3
1,
1=
19
15
11
b11111 )
b101 *
b1 "
#835000
b1010 #
0.
b0 /
0,
b11110 )
b101 *
b10 "
#840000
1.
b1001 #
02
b1 /
b0 3
1,
01
b11101 )
b101 *
b11 "
#845000
b1000 #
0.
b0 /
0,
b11100 )
b101 *
b100 "
#850000
0:
b10 ;
1.
16
0%
b111 #
12
b1 /
b1 7
b1 3
1,
05
11
b11011 )
b101 *
b101 "
#855000
b110 #
0.
b0 /
0,
b11010 )
b101 *
b110 "
#860000
1.
b101 #
02
b1 /
b0 3
1,
01
b11001 )
b101 *
b111 "
#865000
b100 #
0.
b0 /
0,
b11000 )
b101 *
b1000 "
#870000
0>
1(
b10 ?
1.
0:
1$
06
1%
b11 #
12
b1 /
b10 ;
b10 7
b1 3
1,
09
15
11
b10111 )
b101 *
b1001 "
#875000
b10 #
0.
b0 /
0,
b10110 )
b101 *
b1010 "
#880000
1.
b1 #
02
b1 /
b0 3
1,
01
b10101 )
b101 *
b1011 "
#885000
b0 #
0.
b0 /
0,
b10100 )
b101 *
b1100 "
#890000
1>
0(
b1 ?
1:
0$
b1 ;
1.
16
0%
b11111 #
12
b1 /
b1 7
b1 3
1,
05
11
b10011 )
b101 *
b1101 "
#895000
b11110 #
0.
b0 /
0,
b10010 )
b101 *
b1110 "
#900000
02
0>
b1101 #
1.
b0 3
b0 ?
b1 /
01
0=
1+
b0 )
b101 *
b1101 !
b0 "
#905000
1&
1(
0.
1'
0>
1:
1$
16
1%
b1100 #
02
b10 /
b10 ?
b11 ;
b11 7
b10 3
1,
1=
19
15
11
b11111 )
b101 *
b1 "
#910000
06
b10 7
12
0&
b1 3
b1011 #
1.
0'
b1 /
0,
b11110 )
b101 *
b10 "
#915000
0.
1'
b1010 #
12
b10 /
b1 3
1,
01
b11101 )
b101 *
b11 "
#920000
02
b0 3
b1001 #
1.
0'
b1 /
0,
b11100 )
b101 *
b100 "
#925000
1&
1:
b11 ;
0.
1'
06
1%
b1000 #
02
b10 /
b10 7
b10 3
1,
05
11
b11011 )
b101 *
b101 "
#930000
0:
b10 ;
16
0%
b1 7
12
0&
b1 3
b111 #
1.
0'
b1 /
0,
b11010 )
b101 *
b110 "
#935000
0.
1'
b110 #
12
b10 /
b1 3
1,
01
b11001 )
b101 *
b111 "
#940000
02
b0 3
b101 #
1.
0'
b1 /
0,
b11000 )
b101 *
b1000 "
#945000
1&
0>
1(
b10 ?
0.
1'
0:
1$
16
1%
b100 #
02
b10 /
b10 ;
b11 7
b10 3
1,
09
15
11
b10111 )
b101 *
b1001 "
#950000
06
b10 7
12
0&
b1 3
b11 #
1.
0'
b1 /
0,
b10110 )
b101 *
b1010 "
#955000
0.
1'
b10 #
12
b10 /
b1 3
1,
01
b10101 )
b101 *
b1011 "
#960000
02
b0 3
b1 #
1.
0'
b1 /
0,
b10100 )
b101 *
b1100 "
#965000
0>
1(
b10 ?
1&
0:
1$
b10 ;
0.
1'
06
1%
b0 #
02
b10 /
b10 7
b10 3
1,
05
11
b10011 )
b101 *
b1101 "
#970000
1>
0(
b1 ?
1:
0$
b1 ;
16
0%
b1 7
12
0&
b1 3
b11111 #
1.
0'
b1 /
0,
b10010 )
b101 *
b1110 "
#975000
0>
b1110 #
0.
b0 ?
b0 /
01
0=
0+
10
b0 )
b101 *
b1110 !
b0 "
#980000
1(
1.
0>
1:
1$
16
1%
b1101 #
02
1&
b1 /
b10 ?
b11 ;
b11 7
b10 3
1,
1=
19
15
11
b11111 )
b101 *
b1 "
#985000
b1100 #
0.
b0 /
0,
b11110 )
b101 *
b10 "
#990000
06
b10 7
1.
b1011 #
12
0&
b1 /
b1 3
1,
01
b11101 )
b101 *
b11 "
#995000
b1010 #
0.
b0 /
0,
b11100 )
b101 *
b100 "
#1000000
1:
b11 ;
1.
06
1%
b1001 #
02
1&
b1 /
b10 7
b10 3
1,
05
11
b11011 )
b101 *
b101 "
#1005000
b1000 #
0.
b0 /
0,
b11010 )
b101 *
b110 "
#1010000
0:
b10 ;
16
0%
b1 7
1.
b111 #
12
0&
b1 /
b1 3
1,
01
b11001 )
b101 *
b111 "
#1015000
b110 #
0.
b0 /
0,
b11000 )
b101 *
b1000 "
#1020000
0>
1(
b10 ?
1.
0:
1$
16
1%
b101 #
02
1&
b1 /
b10 ;
b11 7
b10 3
1,
09
15
11
b10111 )
b101 *
b1001 "
#1025000
b100 #
0.
b0 /
0,
b10110 )
b101 *
b1010 "
#1030000
06
b10 7
1.
b11 #
12
0&
b1 /
b1 3
1,
01
b10101 )
b101 *
b1011 "
#1035000
b10 #
0.
b0 /
0,
b10100 )
b101 *
b1100 "
#1040000
0>
1(
b10 ?
0:
1$
b10 ;
1.
06
1%
b1 #
02
1&
b1 /
b10 7
b10 3
1,
05
11
b10011 )
b101 *
b1101 "
#1045000
b0 #
0.
b0 /
0,
b10010 )
b101 *
b1110 "
#1050000
1:
0$
b1 ;
16
0%
b1 7
12
0&
0>
0(
b1111 #
1.
b1 3
b0 ?
b1 /
01
0=
1+
b0 )
b101 *
b1111 !
b0 "
#1055000
1(
0.
1'
0>
1:
1$
16
1%
b1110 #
12
1&
b10 /
b10 ?
b11 ;
b11 7
b11 3
1,
1=
19
15
11
b11111 )
b101 *
b1 "
#1060000
02
b10 3
b1101 #
1.
0'
b1 /
0,
b11110 )
b101 *
b10 "
#1065000
16
b11 7
0.
1'
b1100 #
02
1&
b10 /
b10 3
1,
01
b11101 )
b101 *
b11 "
#1070000
06
b10 7
12
0&
b1 3
b1011 #
1.
0'
b1 /
0,
b11100 )
b101 *
b100 "
#1075000
1:
b11 ;
0.
1'
06
1%
b1010 #
12
1&
b10 /
b10 7
b11 3
1,
05
11
b11011 )
b101 *
b101 "
#1080000
02
b10 3
b1001 #
1.
0'
b1 /
0,
b11010 )
b101 *
b110 "
#1085000
1:
b11 ;
06
1%
b10 7
0.
1'
b1000 #
02
1&
b10 /
b10 3
1,
01
b11001 )
b101 *
b111 "
#1090000
0:
b10 ;
16
0%
b1 7
12
0&
b1 3
b111 #
1.
0'
b1 /
0,
b11000 )
b101 *
b1000 "
#1095000
0>
1(
b10 ?
0.
1'
0:
1$
16
1%
b110 #
12
1&
b10 /
b10 ;
b11 7
b11 3
1,
09
15
11
b10111 )
b101 *
b1001 "
#1100000
02
b10 3
b101 #
1.
0'
b1 /
0,
b10110 )
b101 *
b1010 "
#1105000
16
b11 7
0.
1'
b100 #
02
1&
b10 /
b10 3
1,
01
b10101 )
b101 *
b1011 "
#1110000
06
b10 7
12
0&
b1 3
b11 #
1.
0'
b1 /
0,
b10100 )
b101 *
b1100 "
#1115000
0>
1(
b10 ?
0:
1$
b10 ;
0.
1'
06
1%
b10 #
12
1&
b10 /
b10 7
b11 3
1,
05
11
b10011 )
b101 *
b1101 "
#1120000
02
b10 3
b1 #
1.
0'
b1 /
0,
b10010 )
b101 *
b1110 "
#1125000
0&
06
0%
0:
0$
b1 #
0>
b0 3
b0 7
b0 ;
b10 ?
1,
01
0+
00
04
08
1<
b10001 )
b101 *
b10000 !
b1111 "
